{"docs":[{"createdAt":"2025-12-05T09:33:22.802Z","updatedAt":"2025-12-05T09:33:23.954Z","title":{"en":"WANG FUK COURT FIRE","es":"INCENDIO DE WANG FUK COURT","ja":"ワンフクコート火災","ko":"왕푹코트 화재","zh":"宏福苑火災"},"slug":"wang-fuk-court-fire","summary":{"en":"Deadly residential fire in Hong Kong public housing estate","es":"Incendio mortal en complejo habitacional público de Hong Kong","ja":"香港公営住宅での致命的な火災","ko":"홍콩 공공 주택 단지의 치명적인 화재","zh":"香港公共屋邨致命火災"},"type":"conflict","location":{"lat":22.3193,"lon":114.1694},"id":"6932a6e26401c27daf4cc7a3"}],"totalDocs":12,"limit":1,"totalPages":12,"page":1,"pagingCounter":1,"hasPrevPage":false,"hasNextPage":true,"prevPage":null,"nextPage":2}